<svg width="35" height="35" viewBox="0 0 35 35" fill="none" xmlns="http://www.w3.org/2000/svg">
<path d="M33.349 1.95312L1.95361 33.3485" stroke="white" stroke-width="3"/>
<path d="M1.95377 1.95312L33.3491 33.3485" stroke="white" stroke-width="3"/>
</svg>
