<svg width="80" height="80" viewBox="0 0 80 80" fill="none" xmlns="http://www.w3.org/2000/svg">
<rect x="23.501" y="21.9521" width="32.9994" height="38.6835" stroke="black" stroke-width="3"/>
<rect x="31" y="17" width="18" height="11" fill="black"/>
<line x1="31" y1="38.5" x2="49" y2="38.5" stroke="black" stroke-width="3"/>
<line x1="31" y1="45.5" x2="49" y2="45.5" stroke="black" stroke-width="3"/>
<rect x="1.5" y="1.5" width="77" height="77" stroke="black" stroke-width="3"/>
</svg>
