<svg width="77" height="45" viewBox="0 0 77 45" fill="none" xmlns="http://www.w3.org/2000/svg">
<path d="M1.3877 43.546V0.525391H76.186V43.546H1.3877Z" fill="white" stroke="black"/>
<path d="M38.7874 8.78467C46.0063 8.78467 52.0971 14.6241 52.0971 22.0357C52.0971 29.2227 46.2319 35.2867 38.7874 35.2867C31.3429 35.2867 25.4775 29.4473 25.4775 22.0357C25.4775 14.8487 31.5685 8.78467 38.7874 8.78467Z" fill="#AD0018"/>
</svg>
