<svg width="55" height="55" viewBox="0 0 55 55" fill="none" xmlns="http://www.w3.org/2000/svg">
<path d="M23.5785 16L20.738 25.5875L17.7409 16H7V21.8921H10.1248L16.4179 40.3358H23.0794C23.0794 40.3358 29.5379 35.4908 23.5988 33.3993C15.1209 29.0474 27.2313 26.6817 34.2381 25.6623L31.3745 16H23.5785Z" fill="black"/>
<path d="M46.8855 16H37.3603H37.2587L34.2384 25.6623C34.2384 25.6623 31.543 26.6928 30.3679 27.1692C22.2934 30.4463 30.6262 32.1029 33.5682 33.1361C38.5846 34.898 35.7674 40.3358 35.7674 40.3358H38.5846L44.8777 21.8921H48.0025V16H46.8855Z" fill="black"/>
<rect x="1.5" y="1.5" width="52" height="52" stroke="black" stroke-width="3"/>
</svg>
