<svg width="50" height="31" viewBox="0 0 50 31" fill="none" xmlns="http://www.w3.org/2000/svg">
<g clip-path="url(#clip0)">
<path d="M20.218 0L16.7539 12.213L13.0989 0H0V7.50563H3.81077L11.4854 31H19.6094C19.6094 31 27.4857 24.8282 20.2427 22.164C9.90376 16.6204 24.6727 13.6068 33.2178 12.3083L29.7254 0H20.218Z" fill="white"/>
<path d="M48.6413 0H37.025H36.9011L33.2177 12.3083C33.2177 12.3083 29.9306 13.6209 28.4976 14.2279C18.6504 18.4024 28.8125 20.5126 32.4004 21.8288C38.5182 24.0731 35.0824 31 35.0824 31H38.5182L46.1928 7.50563H50.0036V0H48.6413Z" fill="white"/>
</g>
<defs>
<clipPath id="clip0">
<rect width="50" height="31" fill="white"/>
</clipPath>
</defs>
</svg>
