<svg width="80" height="80" viewBox="0 0 80 80" fill="none" xmlns="http://www.w3.org/2000/svg">
<rect x="23.5" y="23.5" width="33" height="33" stroke="black" stroke-width="3"/>
<path d="M31 37.0682L42.9538 49L68 24" stroke="black" stroke-width="3"/>
<rect x="1.5" y="1.5" width="77" height="77" stroke="black" stroke-width="3"/>
</svg>
